048121620242832364044485256606468727680848892960481216202428323640444852566064687276808488929604812162024283236404448525660646872768084889296048121620242832364044485256606468727680848892960
4
8
12
16
20
24
28
32
36
40
44
48
52
56
60
64
68
72
76
80
84
88
92
96
0\n4\n8\n12\n16\n20\n24\n28\n32\n36\n40\n44\n48\n52\n56\n60\n64\n68\n72\n76\n80\n84\n88\n92\n96\n